2	1	5
1	2	5
1	3	5
3	1	5
1	7	5
7	1	5
2	3	5
3	2	5
1	4	5
4	1	5
8	5	5
5	8	5
5	6	5
6	5	5
5	4	5
4	5	5
4	7	5
7	4	5
2	5	5
5	2	5
3	6	5
6	3	5
7	8	5
8	7	5
8	9	5
9	8	5
6	9	5
9	6	5
3	9	5
9	3	5
2	8	5
8	2	5
4	6	5
7	6	5
7	9	5
9	7	5