1	2	268
1	3	284
1	4	280
1	5	262
1	6	293
1	7	272
1	8	262
1	9	269
1	10	279
2	3	251
2	4	295
2	5	254
2	6	259
2	7	288
2	8	273
2	9	269
2	10	276
3	4	265
3	5	265
3	6	271
3	7	263
3	8	276
3	9	289
3	10	297
4	5	291
4	6	254
4	7	280
4	8	293
4	9	285
4	10	297
5	6	252
5	7	297
5	8	262
5	9	259
5	10	265
6	7	267
6	8	293
6	9	268
6	10	299
7	9	284
7	10	290
8	7	284
8	9	278
8	10	252
10	9	291
